Reference database preparation
…
UNITE

UNITE contains fungal species and some oomycetes.

unite <- parse_unite_general(file = file.path('raw_data', 'reference_databases', 'sh_general_release_dynamic_all_02.02.2019.fasta'))
unite

## <Taxmap>
##   49882 taxa: aaab. Viridiplantae ... cvuo. Leucosporidium_scottii
##   49882 edges: NA->aaab, NA->aaac ... anpk->cvun, anpk->cvuo
##   2 data sets:
##     tax_data:
##       # A tibble: 63,422 x 6
##         taxon_id organism   acc_num unite_id unite_type unite_seq     
##         <chr>    <chr>      <chr>   <chr>    <chr>      <chr>         
##       1 atfn     Brosimum_… AY6354… SH16418… reps       CGTAGGTGAACCT…
##       2 atfo     Ochroma_p… AY6355… SH16418… reps       TCGTAGTGAACCT…
##       3 atfp     Tortula_p… GQ3397… SH16418… reps       CACACACAAAGTT…
##       # … with 63,419 more rows
##     class_data:
##       # A tibble: 443,954 x 4
##         taxon_id input_index unite_rank name           
##         <chr>          <int> <chr>      <chr>          
##       1 aaab               1 k          Viridiplantae  
##       2 aaaw               1 p          Anthophyta     
##       3 aaeb               1 c          Eudicotyledonae
##       # … with 443,951 more rows
…
