Read processing and quality filtering
…
Read in raw data

FASTQ data

fastq_dir_path <- "raw_data/sequences"
fastq_paths <- list.files(fastq_dir_path, pattern = "\\.fastq")
fastq_data <- tibble(file_id = sub(fastq_paths, pattern = "\\.fastq\\.gz$", replacement = ""),
                     sample_id = sub(fastq_paths, pattern = "_.+$", replacement = ""),
                     direction = c("Reverse", "Forward")[grepl(fastq_paths, pattern = "R1") + 1],
                     raw_path = file.path(fastq_dir_path, fastq_paths))
print(fastq_data)

## # A tibble: 96 x 4
##    file_id sample_id direction raw_path                         
##    <chr>   <chr>     <chr>     <chr>                            
##  1 A1_R1   A1        Forward   raw_data/sequences/A1_R1.fastq.gz
##  2 A1_R2   A1        Reverse   raw_data/sequences/A1_R2.fastq.gz
##  3 A2_R1   A2        Forward   raw_data/sequences/A2_R1.fastq.gz
##  4 A2_R2   A2        Reverse   raw_data/sequences/A2_R2.fastq.gz
##  5 A3_R1   A3        Forward   raw_data/sequences/A3_R1.fastq.gz
##  6 A3_R2   A3        Reverse   raw_data/sequences/A3_R2.fastq.gz
##  7 A4_R1   A4        Forward   raw_data/sequences/A4_R1.fastq.gz
##  8 A4_R2   A4        Reverse   raw_data/sequences/A4_R2.fastq.gz
##  9 A5_R1   A5        Forward   raw_data/sequences/A5_R1.fastq.gz
## 10 A5_R2   A5        Reverse   raw_data/sequences/A5_R2.fastq.gz
## # … with 86 more rows
…
I will also add a column to identify the type of sample:

metadata$sample_type <- 'Sample'
metadata$sample_type[grepl(metadata$dna_type, pattern = 'control')] <- 'Negative control'
metadata$sample_type[grepl(metadata$dna_type, pattern = 'mock')] <- 'Mock community'

and I will save an edited version in the intermediate files to use in other analyses.

write_csv(metadata, modified_metadata_path)
print(metadata)

## # A tibble: 48 x 8
##    sample_id primer_pair_id dna_type dna_sample_id locus forward reverse
##    <chr>     <chr>          <chr>    <chr>         <chr> <chr>   <chr>  
##  1 A1        rps10_Final    mock1    mock1         rps10 rps10-F rps10-R
##  2 A2        rps10_Final    leaf     L95           rps10 rps10-F rps10-R
##  3 A3        rps10_Felipe   mock1    mock1         rps10 rps10_… rps10-R
##  4 A4        rps10_Felipe   leaf     L95           rps10 rps10_… rps10-R
##  5 A5        ITS6/7         mock1    mock1         ITS   ITS6    ITS7   
##  6 A6        ITS6/7         leaf     L95           ITS   ITS6    ITS7   
##  7 B1        rps10_Final    mock2    mock2         rps10 rps10-F rps10-R
##  8 B2        rps10_Final    WR.soil  WS3           rps10 rps10-F rps10-R
##  9 B3        rps10_Felipe   mock2    mock2         rps10 rps10_… rps10-R
## 10 B4        rps10_Felipe   WR.soil  WS3           rps10 rps10_… rps10-R
## # … with 38 more rows, and 1 more variable: sample_type <chr>
…
    "-A", forward_seq_rc,
    "-n", 2, # -n 2 required to remove FWD and REV from reads
    "-o", forward_output_path,
    "-p", reverse_output_path,
    "--minimum-length", 50,
    "--untrimmed-output", forward_untrimmed_path,
    "--untrimmed-paired-output", reverse_untrimmed_path,
    "--quiet",
    # "--info-file", info_path,
    forward_input_path,
    reverse_input_path
  ))
print(cutadapt_data)

## # A tibble: 48 x 13
##    sample_id reverse_input_p… reverse_output_… reverse_untrimm… forward_input_p…
##    <chr>     <chr>            <chr>            <chr>            <chr>           
##  1 A1        intermediate_da… intermediate_da… intermediate_da… intermediate_da…
##  2 A2        intermediate_da… intermediate_da… intermediate_da… intermediate_da…
##  3 A3        intermediate_da… intermediate_da… intermediate_da… intermediate_da…
##  4 A4        intermediate_da… intermediate_da… intermediate_da… intermediate_da…
##  5 A5        intermediate_da… intermediate_da… intermediate_da… intermediate_da…
##  6 A6        intermediate_da… intermediate_da… intermediate_da… intermediate_da…
##  7 B1        intermediate_da… intermediate_da… intermediate_da… intermediate_da…
##  8 B2        intermediate_da… intermediate_da… intermediate_da… intermediate_da…
##  9 B3        intermediate_da… intermediate_da… intermediate_da… intermediate_da…
## 10 B4        intermediate_da… intermediate_da… intermediate_da… intermediate_da…
## # … with 38 more rows, and 8 more variables: forward_output_path <chr>,
## #   forward_untrimmed_path <chr>, forward_seq <chr>, forward_seq_rc <chr>,
## #   reverse_seq <chr>, reverse_seq_rc <chr>, info_path <chr>,
## #   command_args <chr>
…
Quality filter reads

Now we can do the main quality filtering for the reads. Here reads with Ns, below a length of 50, or that are expected to have more than 5 errors will be removed. First I will define a place to put the results:

filtered_reads_dir <- file.path("intermediate_data", "filtered_sequences")
fastq_data$filtered_path <- file.path(filtered_reads_dir, paste0(fastq_data$file_id, ".fastq.gz"))
print(fastq_data)

## # A tibble: 96 x 8
##    file_id sample_id direction raw_path prefiltered_path trimmed_path
##    <chr>   <chr>     <chr>     <chr>    <chr>            <chr>       
##  1 A1_R1   A1        Forward   raw_dat… intermediate_da… intermediat…
##  2 A1_R2   A1        Reverse   raw_dat… intermediate_da… intermediat…
##  3 A2_R1   A2        Forward   raw_dat… intermediate_da… intermediat…
##  4 A2_R2   A2        Reverse   raw_dat… intermediate_da… intermediat…
##  5 A3_R1   A3        Forward   raw_dat… intermediate_da… intermediat…
##  6 A3_R2   A3        Reverse   raw_dat… intermediate_da… intermediat…
##  7 A4_R1   A4        Forward   raw_dat… intermediate_da… intermediat…
##  8 A4_R2   A4        Reverse   raw_dat… intermediate_da… intermediat…
##  9 A5_R1   A5        Forward   raw_dat… intermediate_da… intermediat…
## 10 A5_R2   A5        Reverse   raw_dat… intermediate_da… intermediat…
## # … with 86 more rows, and 2 more variables: untrimmed_path <chr>,
## #   filtered_path <chr>
…
