Abundance matrix and taxonomic assignment
…
fastq_data <- metadata %>%
  select(sample_id, locus, primer_pair_id) %>%
  right_join(fastq_data, by = "sample_id") %>%
  mutate(file_name = paste0(file_id, '.fastq.gz'))
print(fastq_data)

## # A tibble: 96 x 11
##    sample_id locus primer_pair_id file_id direction raw_path prefiltered_path
##    <chr>     <chr> <chr>          <chr>   <chr>     <chr>    <chr>           
##  1 A1        rps10 rps10_Final    A1_R1   Forward   raw_dat… intermediate_da…
##  2 A1        rps10 rps10_Final    A1_R2   Reverse   raw_dat… intermediate_da…
##  3 A2        rps10 rps10_Final    A2_R1   Forward   raw_dat… intermediate_da…
##  4 A2        rps10 rps10_Final    A2_R2   Reverse   raw_dat… intermediate_da…
##  5 A3        rps10 rps10_Felipe   A3_R1   Forward   raw_dat… intermediate_da…
##  6 A3        rps10 rps10_Felipe   A3_R2   Reverse   raw_dat… intermediate_da…
##  7 A4        rps10 rps10_Felipe   A4_R1   Forward   raw_dat… intermediate_da…
##  8 A4        rps10 rps10_Felipe   A4_R2   Reverse   raw_dat… intermediate_da…
##  9 A5        ITS   ITS6/7         A5_R1   Forward   raw_dat… intermediate_da…
## 10 A5        ITS   ITS6/7         A5_R2   Reverse   raw_dat… intermediate_da…
## # … with 86 more rows, and 4 more variables: trimmed_path <chr>,
## #   untrimmed_path <chr>, filtered_path <chr>, file_name <chr>
…
merge_data <- left_join(merge_data, metadata, by = 'sample_id')

and remove any unneeded columns

merge_data <- select(merge_data, locus, nmatch, nmismatch, nindel, accept)
merge_data

## # A tibble: 96,858 x 5
##    locus nmatch nmismatch nindel accept
##    <chr>  <int>     <int>  <int> <lgl> 
##  1 rps10    117         0      0 TRUE  
##  2 rps10    116         0      1 TRUE  
##  3 rps10    120         0      1 TRUE  
##  4 rps10    120         0      0 TRUE  
##  5 rps10    126         0      0 TRUE  
##  6 rps10    117         0      0 TRUE  
##  7 rps10    135         0      0 TRUE  
##  8 rps10    129         0      0 TRUE  
##  9 rps10    117         0      1 TRUE  
## 10 rps10    120         0      1 TRUE  
## # … with 96,848 more rows
…
Remove short sequences

Sequences that are less than 50 cannot be assigned a taxonomy.

asv_abundance_data <- asv_abundance_data[, nchar(colnames(asv_abundance_data)) >= min_asv_length]
otu_abundance_data <- otu_abundance_data[, nchar(colnames(otu_abundance_data)) >= min_asv_length]

Assign taxonomy

Since there are two loci used, I will need to use two different reference databases. First I will split abundance matrix in to RPS10 and ITS samples:

fastq_data

## # A tibble: 96 x 11
##    sample_id locus primer_pair_id file_id direction raw_path prefiltered_path
##    <chr>     <chr> <chr>          <chr>   <chr>     <chr>    <chr>           
##  1 A1        rps10 rps10_Final    A1_R1   Forward   raw_dat… intermediate_da…
##  2 A1        rps10 rps10_Final    A1_R2   Reverse   raw_dat… intermediate_da…
##  3 A2        rps10 rps10_Final    A2_R1   Forward   raw_dat… intermediate_da…
##  4 A2        rps10 rps10_Final    A2_R2   Reverse   raw_dat… intermediate_da…
##  5 A3        rps10 rps10_Felipe   A3_R1   Forward   raw_dat… intermediate_da…
##  6 A3        rps10 rps10_Felipe   A3_R2   Reverse   raw_dat… intermediate_da…
##  7 A4        rps10 rps10_Felipe   A4_R1   Forward   raw_dat… intermediate_da…
##  8 A4        rps10 rps10_Felipe   A4_R2   Reverse   raw_dat… intermediate_da…
##  9 A5        ITS   ITS6/7         A5_R1   Forward   raw_dat… intermediate_da…
## 10 A5        ITS   ITS6/7         A5_R2   Reverse   raw_dat… intermediate_da…
## # … with 86 more rows, and 4 more variables: trimmed_path <chr>,
## #   untrimmed_path <chr>, filtered_path <chr>, file_name <chr>
…
## Warning: The `path` argument of `write_csv()` is deprecated as of readr 1.4.0.
## Please use the `file` argument instead.
## This warning is displayed once every 8 hours.
## Call `lifecycle::last_warnings()` to see where this warning was generated.

print(formatted_abund_asv)

## # A tibble: 9,528 x 49
##    sequence taxonomy A1    A2    B1    B2    C1    C2    D1    D2    E1    E2   
##    <chr>    <chr>    <chr> <chr> <chr> <chr> <chr> <chr> <chr> <chr> <chr> <chr>
##  1 AGTCCGT… Eukaryo… 0     0     0     0     0     0     0     0     0     0    
##  2 TTTCCGT… Eukaryo… 0     0     0     0     0     0     0     0     0     0    
##  3 GAAAATC… Eukaryo… 0     0     18    10732 17    15744 72491 19351 23080 0    
##  4 TTTCCGT… Eukaryo… 0     0     0     0     0     0     0     0     0     0    
##  5 TTTCCGT… Eukaryo… 0     0     0     0     0     0     0     0     0     0    
##  6 TTTCCGT… Eukaryo… 0     0     0     0     0     0     0     0     0     0    
##  7 AGTCCGT… Eukaryo… 0     0     0     0     0     0     0     0     0     0    
##  8 TTTCCGT… Eukaryo… 0     0     0     0     0     0     0     0     0     0    
##  9 AGTCCAC… Eukaryo… 0     0     0     0     0     0     0     0     0     0    
## 10 GAAAATC… Eukaryo… 0     0     0     0     0     0     79940 1739  71434 0    
## # … with 9,518 more rows, and 37 more variables: F1 <chr>, F2 <chr>, G1 <chr>,
## #   G2 <chr>, H1 <chr>, A3 <chr>, A4 <chr>, B3 <chr>, B4 <chr>, C3 <chr>,
## #   C4 <chr>, D3 <chr>, D4 <chr>, E3 <chr>, E4 <chr>, F3 <chr>, F4 <chr>,
## #   G3 <chr>, G4 <chr>, H3 <chr>, H4 <chr>, A5 <chr>, A6 <chr>, B5 <chr>,
## #   B6 <chr>, C5 <chr>, C6 <chr>, D5 <chr>, D6 <chr>, E5 <chr>, E6 <chr>,
## #   F5 <chr>, F6 <chr>, G5 <chr>, G6 <chr>, H5 <chr>, H6 <chr>

# OTUs
formatted_abund_otu <- t(otu_abundance_data)
colnames(formatted_abund_otu) <- sub(colnames(formatted_abund_otu), pattern = "_.+$", replacement = "")
formatted_abund_otu <- cbind(sequence = rownames(formatted_abund_otu), 
                             taxonomy = seq_tax_otu[rownames(formatted_abund_otu)], 
                             formatted_abund_otu)
formatted_abund_otu <- as_tibble(formatted_abund_otu)
write_csv(formatted_abund_otu, path = file.path('intermediate_data', 'abundance_otu.csv'))
print(formatted_abund_otu)

## # A tibble: 7,250 x 49
##    sequence taxonomy A1    A2    B1    B2    C1    C2    D1    D2    E1    E2   
##    <chr>    <chr>    <chr> <chr> <chr> <chr> <chr> <chr> <chr> <chr> <chr> <chr>
##  1 AGTCCGT… Eukaryo… 0     0     0     0     0     0     0     0     0     0    
##  2 TTTCCGT… Eukaryo… 0     0     0     0     0     0     0     0     0     0    
##  3 TTTCCGT… Eukaryo… 0     0     0     0     0     0     0     0     0     0    
##  4 TTTCCGT… Eukaryo… 0     0     0     0     0     0     0     0     0     0    
##  5 TTTCCGT… Eukaryo… 0     0     0     0     0     0     0     0     0     0    
##  6 TTTCCGT… Eukaryo… 0     0     0     0     0     0     0     0     0     0    
##  7 AGTCCAC… Eukaryo… 0     0     0     0     0     0     0     0     0     0    
##  8 TTTCCGT… Eukaryo… 0     0     0     0     0     0     0     0     0     0    
##  9 AGTCCAC… Eukaryo… 0     0     0     0     0     0     0     0     0     0    
## 10 TTTCCGT… Eukaryo… 0     0     0     0     0     0     0     0     0     0    
## # … with 7,240 more rows, and 37 more variables: F1 <chr>, F2 <chr>, G1 <chr>,
## #   G2 <chr>, H1 <chr>, A3 <chr>, A4 <chr>, B3 <chr>, B4 <chr>, C3 <chr>,
## #   C4 <chr>, D3 <chr>, D4 <chr>, E3 <chr>, E4 <chr>, F3 <chr>, F4 <chr>,
## #   G3 <chr>, G4 <chr>, H3 <chr>, H4 <chr>, A5 <chr>, A6 <chr>, B5 <chr>,
## #   B6 <chr>, C5 <chr>, C6 <chr>, D5 <chr>, D6 <chr>, E5 <chr>, E6 <chr>,
## #   F5 <chr>, F6 <chr>, G5 <chr>, G6 <chr>, H5 <chr>, H6 <chr>
…
