Clustering ASVs into OTUs
…
abundance <- read_csv(file.path('intermediate_data', 'abundance_asv.csv'))

## 
## ── Column specification ────────────────────────────────────────────────────────
## cols(
##   .default = col_double(),
##   sequence = col_character(),
##   blast_tax = col_character(),
##   taxonomy = col_character()
## )
## ℹ Use `spec()` for the full column specifications.

print(metadata)

## # A tibble: 48 x 8
##    sample_id primer_pair_id dna_type dna_sample_id locus forward reverse
##    <chr>     <chr>          <chr>    <chr>         <chr> <chr>   <chr>  
##  1 A1        rps10_Final    mock1    mock1         rps10 rps10-F rps10-R
##  2 A2        rps10_Final    leaf     L95           rps10 rps10-F rps10-R
##  3 A3        rps10_Felipe   mock1    mock1         rps10 rps10_… rps10-R
##  4 A4        rps10_Felipe   leaf     L95           rps10 rps10_… rps10-R
##  5 A5        ITS6/7         mock1    mock1         ITS   ITS6    ITS7   
##  6 A6        ITS6/7         leaf     L95           ITS   ITS6    ITS7   
##  7 B1        rps10_Final    mock2    mock2         rps10 rps10-F rps10-R
##  8 B2        rps10_Final    WR.soil  WS3           rps10 rps10-F rps10-R
##  9 B3        rps10_Felipe   mock2    mock2         rps10 rps10_… rps10-R
## 10 B4        rps10_Felipe   WR.soil  WS3           rps10 rps10_… rps10-R
## # … with 38 more rows, and 1 more variable: sample_type <chr>
…
I will also zero out low abundance ASVs, since that would be done in a normal metabarcoding analysis. Here we are using a rather high minimum abundance of 50 since this is a low-complexity sample, and thus higher read count per species, relative to most natural communities, so erroneous sequence abundance is probably similarly inflated.

opt_filtered_abund <- select(abundance, sequence, !!! mock_meta$sample_id)
opt_filtered_abund <- opt_filtered_abund[rowSums(opt_filtered_abund[, mock_meta$sample_id]) > opt_min_read_count, ]
opt_filtered_abund

## # A tibble: 71 x 3
##    sequence                                                            B1     B5
##    <chr>                                                            <dbl>  <dbl>
##  1 TTTCCGTAGGTGAACCTGCGGAAGGATCATTACCACACCTAAAAAAACTTTCCACGTGAACCG…     0 147595
##  2 GAAAATCTTTGTGTCGGTGGTTCAAGTCCACCTCCAGACAAAATATAATAAAATTATGTATAT… 45398      0
##  3 TTTCCGTAGGTGAACCTGCGGAAGGATCATTACCACACCTAAAAAACTTTCCACGTGAACCGT…     0  60788
##  4 GAAAATCTTTGTGTCGGTGGTTCAAATCCACCTCCAGACAATTTTTATTATTAAAAATATGTA… 28991      0
##  5 TTTCCGTAGGTGAACCTGCGGAAGGATCATTACCACACCTAAAAACTTTCCACGTGAACTGTC…     0  47346
##  6 TTTCCGTAGGTGAACCTGCGGAAGGATCATTACCACACCTAAAAAACTTTCCACGTGAACCGT…     0  25411
##  7 GAAAATCTTTGTGTCGGTGGTTCAAATCCACCTCCAGACAATTTTTATTATTAAAAATATGTA… 12259      0
##  8 GAAAATCTTTGTGTCGATGGTTCAAATCCATCTCCAGACAATTTTCATTATTAAAAATATGTA… 22213      0
##  9 TTTCCGTAGGTGAACCTGCGGAAGGATCATTACCACACCTTAAAACTATCCACGTGAACCGTT…     0   3192
## 10 GGTTTCCGTAGGTGAACCTGCGGAAGGATCATTACCACACCTAAAAAAACTTTCCACGTGAAC…     0  12611
## # … with 61 more rows
…
## Warning: The `path` argument of `write_lines()` is deprecated as of readr 1.4.0.
## Please use the `file` argument instead.
## This warning is displayed once every 8 hours.
## Call `lifecycle::last_warnings()` to see where this warning was generated.

opt_thresh_data

## # A tibble: 101 x 3
##    thresh rps10   ITS
##     <dbl> <dbl> <dbl>
##  1  0.9      13    20
##  2  0.901    13    20
##  3  0.902    14    20
##  4  0.903    14    20
##  5  0.904    14    20
##  6  0.905    14    20
##  7  0.906    14    20
##  8  0.907    14    20
##  9  0.908    14    20
## 10  0.909    14    20
## # … with 91 more rows
…
