Mock community evaluation
…
## No `cols` specified, so using all numeric columns:
##    B1, B5

## Calculating proportions from counts for 2 columns for 76 observations.

print(asv_data)

## <Taxmap>
##   210 taxa: aab. Eukaryota ... mep. CTTCCGTAGGTGAC[truncated]
##   210 edges: NA->aab, aab->aac, aab->aad ... ebf->lxl, efv->mep
##   3 data sets:
##     abund:
##       # A tibble: 85 x 5
##         taxon_id sequence             taxonomy               B1     B5
##         <chr>    <chr>                <chr>               <dbl>  <dbl>
##       1 gqf      GAAAATCTTTGTGTCGGCG… Eukaryota--100--Do…    18      0
##       2 gqk      TTTCCGTAGGTGAACCTGC… Eukaryota--100--Do…     0 147595
##       3 gqt      GAAAATCTTTGTGTCGGTG… Eukaryota--100--Do… 45398      0
##       # … with 82 more rows
##     score:
##       # A tibble: 850 x 4
##         taxon_id sequence                                 boot  rank  
##         <chr>    <chr>                                    <chr> <chr> 
##       1 aab      GAAAATCTTTGTGTCGGCGGTTCAAGTCCGTCTCTAAAC… 100   Domai…
##       2 aac      GAAAATCTTTGTGTCGGCGGTTCAAGTCCGTCTCTAAAC… 100   Kingd…
##       3 aak      GAAAATCTTTGTGTCGGCGGTTCAAGTCCGTCTCTAAAC… 100   Phylum
##       # … with 847 more rows
##     prop:
##       # A tibble: 85 x 3
##         taxon_id        B1    B5
##         <chr>        <dbl> <dbl>
##       1 gqf      0.0000742 0    
##       2 gqk      0         0.399
##       3 gqt      0.187     0    
##       # … with 82 more rows
##   0 functions:

print(otu_data)

## <Taxmap>
##   193 taxa: aab. Eukaryota ... leq. TTTCCGTAGGTGAA[truncated]
##   193 edges: NA->aab, aab->aac, aab->aad ... dxl->lee, dxl->leq
##   3 data sets:
##     abund:
##       # A tibble: 76 x 5
##         taxon_id sequence             taxonomy               B1     B5
##         <chr>    <chr>                <chr>               <dbl>  <dbl>
##       1 gmm      TTTCCGTAGGTGAACCTGC… Eukaryota--100--Do…     0 147595
##       2 gmt      TTTCCGTAGGTGAACCTGC… Eukaryota--100--Do…     0     40
##       3 gmv      TTTCCGTAGGTGAACCTGC… Eukaryota--100--Do…     0  60788
##       # … with 73 more rows
##     score:
##       # A tibble: 760 x 4
##         taxon_id sequence                                 boot  rank  
##         <chr>    <chr>                                    <chr> <chr> 
##       1 aab      TTTCCGTAGGTGAACCTGCGGAAGGATCATTACCACACC… 100   Domai…
##       2 aac      TTTCCGTAGGTGAACCTGCGGAAGGATCATTACCACACC… 100   Kingd…
##       3 aak      TTTCCGTAGGTGAACCTGCGGAAGGATCATTACCACACC… 100   Phylum
##       # … with 757 more rows
##     prop:
##       # A tibble: 76 x 3
##         taxon_id    B1       B5
##         <chr>    <dbl>    <dbl>
##       1 gmm          0 0.411   
##       2 gmt          0 0.000111
##       3 gmv          0 0.169   
##       # … with 73 more rows
…
Bootstrap analysis

In order to see how well the two barcodes can be used to assign taxonomy and resolve phylogenetic trees, I will compare the bootstrap values from dada2 and the neighbor-joining trees produced with ape.

tax_boot_data <- asv_data$data$score[asv_data$data$score$rank %in% c('Genus', 'Species', 'Reference'), ]
# tax_boot_data <- asv_data$data$score
tax_boot_data$locus <- asv_data$data$abund$locus[match(tax_boot_data$sequence, asv_data$data$abund$sequence)]
tax_boot_data$type <- 'Naive Bayesian Classifier'
tax_boot_data$boot <- as.integer(tax_boot_data$boot)
boot_data <- bind_rows(phylo_boot_data, tax_boot_data[, colnames(phylo_boot_data)])
boot_data

## # A tibble: 385 x 4
##    locus  boot rank   type            
##    <chr> <dbl> <chr>  <chr>           
##  1 rps10   100 Branch Neighbor Joining
##  2 rps10    19 Branch Neighbor Joining
##  3 rps10    10 Branch Neighbor Joining
##  4 rps10    28 Branch Neighbor Joining
##  5 rps10    17 Branch Neighbor Joining
##  6 rps10    25 Branch Neighbor Joining
##  7 rps10    39 Branch Neighbor Joining
##  8 rps10    37 Branch Neighbor Joining
##  9 rps10    25 Branch Neighbor Joining
## 10 rps10    60 Branch Neighbor Joining
## # … with 375 more rows
…
