Non-target amplification
…
abundance_asv <- read_csv(file.path('intermediate_data', 'abundance_asv.csv'))

## 
## ── Column specification ────────────────────────────────────────────────────────
## cols(
##   .default = col_double(),
##   sequence = col_character(),
##   blast_tax = col_character(),
##   taxonomy = col_character()
## )
## ℹ Use `spec()` for the full column specifications.

abundance_asv

## # A tibble: 9,528 x 52
##    sequence blast_pid blast_cov blast_tax taxonomy    A1    A2    B1    B2    C1
##    <chr>        <dbl>     <dbl> <chr>     <chr>    <dbl> <dbl> <dbl> <dbl> <dbl>
##  1 AGTCCGT…      81.5      99.3 cellular… Eukaryo…     0     0     0     0     0
##  2 TTTCCGT…      89.0      99.6 cellular… Eukaryo…     0     0     0     0     0
##  3 GAAAATC…      82.0      99.3 cellular… Eukaryo…     0     0    18 10732    17
##  4 TTTCCGT…      90.9      99.6 cellular… Eukaryo…     0     0     0     0     0
##  5 TTTCCGT…      99.7      99.0 cellular… Eukaryo…     0     0     0     0     0
##  6 TTTCCGT…     100        99.6 cellular… Eukaryo…     0     0     0     0     0
##  7 AGTCCGT…      81.7      99.3 cellular… Eukaryo…     0     0     0     0     0
##  8 TTTCCGT…     100        99.6 cellular… Eukaryo…     0     0     0     0     0
##  9 AGTCCAC…      86.8      93.9 cellular… Eukaryo…     0     0     0     0     0
## 10 GAAAATC…      85.5      99.8 cellular… Eukaryo…     0     0     0     0     0
## # … with 9,518 more rows, and 42 more variables: C2 <dbl>, D1 <dbl>, D2 <dbl>,
## #   E1 <dbl>, E2 <dbl>, F1 <dbl>, F2 <dbl>, G1 <dbl>, G2 <dbl>, H1 <dbl>,
## #   A3 <dbl>, A4 <dbl>, B3 <dbl>, B4 <dbl>, C3 <dbl>, C4 <dbl>, D3 <dbl>,
## #   D4 <dbl>, E3 <dbl>, E4 <dbl>, F3 <dbl>, F4 <dbl>, G3 <dbl>, G4 <dbl>,
## #   H3 <dbl>, H4 <dbl>, A5 <dbl>, A6 <dbl>, B5 <dbl>, B6 <dbl>, C5 <dbl>,
## #   C6 <dbl>, D5 <dbl>, D6 <dbl>, E5 <dbl>, E6 <dbl>, F5 <dbl>, F6 <dbl>,
## #   G5 <dbl>, G6 <dbl>, H5 <dbl>, H6 <dbl>
abundance_otu <- read_csv(file.path('intermediate_data', 'abundance_otu.csv'))

## 
## ── Column specification ────────────────────────────────────────────────────────
## cols(
##   .default = col_double(),
##   sequence = col_character(),
##   blast_tax = col_character(),
##   taxonomy = col_character()
## )
## ℹ Use `spec()` for the full column specifications.

abundance_otu

## # A tibble: 7,250 x 52
##    sequence blast_pid blast_cov blast_tax taxonomy    A1    A2    B1    B2    C1
##    <chr>        <dbl>     <dbl> <chr>     <chr>    <dbl> <dbl> <dbl> <dbl> <dbl>
##  1 AGTCCGT…      81.5      99.3 cellular… Eukaryo…     0     0     0     0     0
##  2 TTTCCGT…      89.0      99.6 cellular… Eukaryo…     0     0     0     0     0
##  3 TTTCCGT…      90.9      99.6 cellular… Eukaryo…     0     0     0     0     0
##  4 TTTCCGT…      99.7      99.0 cellular… Eukaryo…     0     0     0     0     0
##  5 TTTCCGT…     100        99.6 cellular… Eukaryo…     0     0     0     0     0
##  6 TTTCCGT…     100        99.6 cellular… Eukaryo…     0     0     0     0     0
##  7 AGTCCAC…      86.8      93.9 cellular… Eukaryo…     0     0     0     0     0
##  8 TTTCCGT…      99.2      99.6 cellular… Eukaryo…     0     0     0     0     0
##  9 AGTCCAC…      93.7      99.3 cellular… Eukaryo…     0     0     0     0     0
## 10 TTTCCGT…     100        98.7 cellular… Eukaryo…     0     0     0     0     0
## # … with 7,240 more rows, and 42 more variables: C2 <dbl>, D1 <dbl>, D2 <dbl>,
## #   E1 <dbl>, E2 <dbl>, F1 <dbl>, F2 <dbl>, G1 <dbl>, G2 <dbl>, H1 <dbl>,
## #   A3 <dbl>, A4 <dbl>, B3 <dbl>, B4 <dbl>, C3 <dbl>, C4 <dbl>, D3 <dbl>,
## #   D4 <dbl>, E3 <dbl>, E4 <dbl>, F3 <dbl>, F4 <dbl>, G3 <dbl>, G4 <dbl>,
## #   H3 <dbl>, H4 <dbl>, A5 <dbl>, A6 <dbl>, B5 <dbl>, B6 <dbl>, C5 <dbl>,
## #   C6 <dbl>, D5 <dbl>, D6 <dbl>, E5 <dbl>, E6 <dbl>, F5 <dbl>, F6 <dbl>,
## #   G5 <dbl>, G6 <dbl>, H5 <dbl>, H6 <dbl>
…
metadata

## # A tibble: 48 x 8
##    sample_id primer_pair_id dna_type dna_sample_id locus forward reverse
##    <chr>     <chr>          <chr>    <chr>         <chr> <chr>   <chr>  
##  1 A1        rps10_Final    mock1    mock1         rps10 rps10-F rps10-R
##  2 A2        rps10_Final    leaf     L95           rps10 rps10-F rps10-R
##  3 A3        rps10_Felipe   mock1    mock1         rps10 rps10_… rps10-R
##  4 A4        rps10_Felipe   leaf     L95           rps10 rps10_… rps10-R
##  5 A5        ITS6/7         mock1    mock1         ITS   ITS6    ITS7   
##  6 A6        ITS6/7         leaf     L95           ITS   ITS6    ITS7   
##  7 B1        rps10_Final    mock2    mock2         rps10 rps10-F rps10-R
##  8 B2        rps10_Final    WR.soil  WS3           rps10 rps10-F rps10-R
##  9 B3        rps10_Felipe   mock2    mock2         rps10 rps10_… rps10-R
## 10 B4        rps10_Felipe   WR.soil  WS3           rps10 rps10_… rps10-R
## # … with 38 more rows, and 1 more variable: sample_type <chr>

Select only environmental samples

Non-target DNA is likely to be found the in the environmental samples, so I will restrict this analysis to those.

metadata <- filter(metadata,
                   dna_type %in% c("leaf", "WR.soil", "ag.soil", "drip", "Pan.soil"),
                   primer_pair_id %in% c('rps10_Final', 'ITS6/7'))
metadata

## # A tibble: 26 x 8
##    sample_id primer_pair_id dna_type dna_sample_id locus forward reverse
##    <chr>     <chr>          <chr>    <chr>         <chr> <chr>   <chr>  
##  1 A2        rps10_Final    leaf     L95           rps10 rps10-F rps10-R
##  2 A6        ITS6/7         leaf     L95           ITS   ITS6    ITS7   
##  3 B2        rps10_Final    WR.soil  WS3           rps10 rps10-F rps10-R
##  4 B6        ITS6/7         WR.soil  WS3           ITS   ITS6    ITS7   
##  5 C1        rps10_Final    ag.soil  AG1           rps10 rps10-F rps10-R
##  6 C2        rps10_Final    WR.soil  WS7           rps10 rps10-F rps10-R
##  7 C5        ITS6/7         ag.soil  AG1           ITS   ITS6    ITS7   
##  8 C6        ITS6/7         WR.soil  WS7           ITS   ITS6    ITS7   
##  9 D1        rps10_Final    drip     D3            rps10 rps10-F rps10-R
## 10 D2        rps10_Final    WR.soil  WS23          rps10 rps10-F rps10-R
## # … with 16 more rows, and 1 more variable: sample_type <chr>

abundance_asv <- select(abundance_asv, sequence:taxonomy, !!! metadata$sample_id)
abundance_asv

## # A tibble: 9,528 x 31
##    sequence blast_pid blast_cov blast_tax taxonomy    A2    A6    B2    B6    C1
##    <chr>        <dbl>     <dbl> <chr>     <chr>    <dbl> <dbl> <dbl> <dbl> <dbl>
##  1 AGTCCGT…      81.5      99.3 cellular… Eukaryo…     0     0     0     0     0
##  2 TTTCCGT…      89.0      99.6 cellular… Eukaryo…     0    44     0  2988     0
##  3 GAAAATC…      82.0      99.3 cellular… Eukaryo…     0     0 10732     0    17
##  4 TTTCCGT…      90.9      99.6 cellular… Eukaryo…     0     0     0   218     0
##  5 TTTCCGT…      99.7      99.0 cellular… Eukaryo…     0     0     0     0     0
##  6 TTTCCGT…     100        99.6 cellular… Eukaryo…     0     0     0  1122     0
##  7 AGTCCGT…      81.7      99.3 cellular… Eukaryo…     0     0     0     0     0
##  8 TTTCCGT…     100        99.6 cellular… Eukaryo…     0     0     0    57     0
##  9 AGTCCAC…      86.8      93.9 cellular… Eukaryo…     0     0     0     0     0
## 10 GAAAATC…      85.5      99.8 cellular… Eukaryo…     0     0     0     0     0
## # … with 9,518 more rows, and 21 more variables: C2 <dbl>, C5 <dbl>, C6 <dbl>,
## #   D1 <dbl>, D2 <dbl>, D5 <dbl>, D6 <dbl>, E1 <dbl>, E2 <dbl>, E5 <dbl>,
## #   E6 <dbl>, F1 <dbl>, F2 <dbl>, F5 <dbl>, F6 <dbl>, G1 <dbl>, G2 <dbl>,
## #   G5 <dbl>, G6 <dbl>, H1 <dbl>, H5 <dbl>

abundance_otu <- select(abundance_otu, sequence:taxonomy, !!! metadata$sample_id)
abundance_otu

## # A tibble: 7,250 x 31
##    sequence blast_pid blast_cov blast_tax taxonomy    A2    A6    B2    B6    C1
##    <chr>        <dbl>     <dbl> <chr>     <chr>    <dbl> <dbl> <dbl> <dbl> <dbl>
##  1 AGTCCGT…      81.5      99.3 cellular… Eukaryo…     0     0     0     0     0
##  2 TTTCCGT…      89.0      99.6 cellular… Eukaryo…     0    44     0  2988     0
##  3 TTTCCGT…      90.9      99.6 cellular… Eukaryo…     0     0     0   218     0
##  4 TTTCCGT…      99.7      99.0 cellular… Eukaryo…     0     0     0     0     0
##  5 TTTCCGT…     100        99.6 cellular… Eukaryo…     0     0     0  1122     0
##  6 TTTCCGT…     100        99.6 cellular… Eukaryo…     0     0     0    57     0
##  7 AGTCCAC…      86.8      93.9 cellular… Eukaryo…     0     0     0     0     0
##  8 TTTCCGT…      99.2      99.6 cellular… Eukaryo…     0     0     0     0     0
##  9 AGTCCAC…      93.7      99.3 cellular… Eukaryo…     0     0     0     0     0
## 10 TTTCCGT…     100        98.7 cellular… Eukaryo…     0     0     0     0     0
## # … with 7,240 more rows, and 21 more variables: C2 <dbl>, C5 <dbl>, C6 <dbl>,
## #   D1 <dbl>, D2 <dbl>, D5 <dbl>, D6 <dbl>, E1 <dbl>, E2 <dbl>, E5 <dbl>,
## #   E6 <dbl>, F1 <dbl>, F2 <dbl>, F5 <dbl>, F6 <dbl>, G1 <dbl>, G2 <dbl>,
## #   G5 <dbl>, G6 <dbl>, H1 <dbl>, H5 <dbl>

Filtering out low abundance_asv ASVs

Most low-abundance_asv ASVs would normally be filtered out during most analyses, so I will do that to.

abundance_asv <- abundance_asv[rowSums(abundance_asv[, metadata$sample_id]) >= minimum_read_count, ]
abundance_asv

## # A tibble: 2,571 x 31
##    sequence blast_pid blast_cov blast_tax taxonomy    A2    A6    B2    B6    C1
##    <chr>        <dbl>     <dbl> <chr>     <chr>    <dbl> <dbl> <dbl> <dbl> <dbl>
##  1 TTTCCGT…      89.0      99.6 cellular… Eukaryo…     0    44     0  2988     0
##  2 GAAAATC…      82.0      99.3 cellular… Eukaryo…     0     0 10732     0    17
##  3 TTTCCGT…      90.9      99.6 cellular… Eukaryo…     0     0     0   218     0
##  4 TTTCCGT…      99.7      99.0 cellular… Eukaryo…     0     0     0     0     0
##  5 TTTCCGT…     100        99.6 cellular… Eukaryo…     0     0     0  1122     0
##  6 TTTCCGT…     100        99.6 cellular… Eukaryo…     0     0     0    57     0
##  7 GAAAATC…      85.5      99.8 cellular… Eukaryo…     0     0     0     0     0
##  8 GAAAATC…      82.3      99.3 cellular… Eukaryo…     0     0     0     0     0
##  9 TTTCCGT…     100        98.7 cellular… Eukaryo…     0     0     0     0     0
## 10 GAAAATC…      74.3      59.2 cellular… Eukaryo…     0     0     0     0     0
## # … with 2,561 more rows, and 21 more variables: C2 <dbl>, C5 <dbl>, C6 <dbl>,
## #   D1 <dbl>, D2 <dbl>, D5 <dbl>, D6 <dbl>, E1 <dbl>, E2 <dbl>, E5 <dbl>,
## #   E6 <dbl>, F1 <dbl>, F2 <dbl>, F5 <dbl>, F6 <dbl>, G1 <dbl>, G2 <dbl>,
## #   G5 <dbl>, G6 <dbl>, H1 <dbl>, H5 <dbl>

abundance_otu <- abundance_otu[rowSums(abundance_otu[, metadata$sample_id]) >= minimum_read_count, ]
abundance_otu

## # A tibble: 1,773 x 31
##    sequence blast_pid blast_cov blast_tax taxonomy    A2    A6    B2    B6
##    <chr>        <dbl>     <dbl> <chr>     <chr>    <dbl> <dbl> <dbl> <dbl>
##  1 TTTCCGT…      89.0      99.6 cellular… Eukaryo…     0    44     0  2988
##  2 TTTCCGT…      90.9      99.6 cellular… Eukaryo…     0     0     0   218
##  3 TTTCCGT…      99.7      99.0 cellular… Eukaryo…     0     0     0     0
##  4 TTTCCGT…     100        99.6 cellular… Eukaryo…     0     0     0  1122
##  5 TTTCCGT…     100        99.6 cellular… Eukaryo…     0     0     0    57
##  6 TTTCCGT…     100        98.7 cellular… Eukaryo…     0     0     0     0
##  7 GAAAATC…      74.3      59.2 cellular… Eukaryo…     0     0     0     0
##  8 TTTCCGT…     100        99.4 cellular… Eukaryo…     0     0     0 86209
##  9 GAAAATC…      96.1      99.8 cellular… Eukaryo…     0     0     0     0
## 10 GAAAATC…      99.3      99.8 cellular… Eukaryo…  3542     0     0     0
## # … with 1,763 more rows, and 22 more variables: C1 <dbl>, C2 <dbl>, C5 <dbl>,
## #   C6 <dbl>, D1 <dbl>, D2 <dbl>, D5 <dbl>, D6 <dbl>, E1 <dbl>, E2 <dbl>,
## #   E5 <dbl>, E6 <dbl>, F1 <dbl>, F2 <dbl>, F5 <dbl>, F6 <dbl>, G1 <dbl>,
## #   G2 <dbl>, G5 <dbl>, G6 <dbl>, H1 <dbl>, H5 <dbl>
…
Plot barchart of counts

Finally I can combine these into a single table and add some metadata

group_abund <- bind_rows(otu_counts, asv_counts, read_counts_asv, read_props_asv) %>%
  gather(key = 'sample_id', value = 'abund', !!! metadata$sample_id) %>%
  left_join(metadata, by = 'sample_id')
group_abund

## # A tibble: 832 x 11
##    group measure sample_id abund primer_pair_id dna_type dna_sample_id locus
##    <chr> <chr>   <chr>     <dbl> <chr>          <chr>    <chr>         <chr>
##  1 Oomy… OTUs    A2            2 rps10_Final    leaf     L95           rps10
##  2 Fungi OTUs    A2            0 rps10_Final    leaf     L95           rps10
##  3 Other OTUs    A2            0 rps10_Final    leaf     L95           rps10
##  4 Plant OTUs    A2            0 rps10_Final    leaf     L95           rps10
##  5 Prot… OTUs    A2            0 rps10_Final    leaf     L95           rps10
##  6 Anim… OTUs    A2            0 rps10_Final    leaf     L95           rps10
##  7 Bact… OTUs    A2            0 rps10_Final    leaf     L95           rps10
##  8 Unkn… OTUs    A2            8 rps10_Final    leaf     L95           rps10
##  9 Oomy… ASVs    A2            6 rps10_Final    leaf     L95           rps10
## 10 Fungi ASVs    A2            0 rps10_Final    leaf     L95           rps10
## # … with 822 more rows, and 3 more variables: forward <chr>, reverse <chr>,
## #   sample_type <chr>
…
