Plotting simulated PCR results
…
I will find which portions of the taxonomy have all of their leaves amplified …

cleaned_obj$mutate_obs("is_amplified",
               unlist(leaves_apply(cleaned_obj,
                                    function(x) length(x) > 0 && all(x %in% names(amp_seqs)),
                                    value = "original_names")))

## Adding a new "logical" vector of length 420.

## <Taxmap>
##   420 taxa: ab. cellular organisms ... rh. graminicola
##   420 edges: NA->ab, ab->ac, ab->ad ... re->rf, rf->rg, rg->rh
##   3 data sets:
##     tax_data:
##       # A tibble: 217 x 2
##         taxon_id input                                                
##         <chr>    <chr>                                                
##       1 ej       cellular organisms;Eukaryota;Sar;Stramenopiles;Oomyc…
##       2 kk       cellular organisms;Eukaryota;Sar;Stramenopiles;Ochro…
##       3 om       cellular organisms;Eukaryota;Sar;Alveolata;Ciliophor…
##       # … with 214 more rows
…
